nombre,apellido_paterno,apellidos_materno,correo,password,sexo,telefono,celular
victor,uribe,hernández,fu-sio@hotmiail.com,vkmclkadmscl,masculino,1234567899,1234567891
victor2,uribe,hernández,cuba_ps3@hotmail.com,vkmclkadmscl,masculino,1234567899,1234567891
victor2,uribe,hernández,sumaæ@test.com,vkmclkadmscl,masculino,1234567899,1234567891
